{
   "name":"tqt_p02",
   "components":{
      "pc1":{
         "branch":"master",
         "description":"build from master with stroke predictor init code."
      },
       "pc2":{
         "branch":"master",
         "description":"build from master with stroke predictor init code."
      },
       "infers1":{
         "branch":"master",
         "description":"build from master with stroke predictor init code."
      },
       "infers2":{
         "branch":"master",
         "description":"build from master with stroke predictor init code."
      }       
   }
}
