{
    "experiments": [
    {
        "project_name": "ps_pipe_fix1",
        "pipeline_name": "feature_engg_and_classifier_pipeline",
        "pipeline_version": 1,
        "run_name": "ps_pipe_fix1_1a"
    },
    {
        "project_name": "ps_pipe_fix1",
        "pipeline_version": 1,
        "pipeline_name": "feature_engg_and_classifier_pipeline",
        "run_name": "ps_pipe_fix1_1b"
    }
    ]
}
