{
       "run_name" : "test_queue_exp6",
       "project_name": "failed_experiment_exit_testing",
       "pipeline_name" : "test_failed_pipeline",
       "pipeline_version": 9,
       "run_parameters" : {
    }
}
